CSforAll Education Communities on Twitter
…
.panel[.panel-name[Positive Tweeters]
.pull-left-narrow[<br />.red[72 of the tweeters in our \#CSforALL network are tweeting positive things.]]
.pull-right-wide[

```
## # A tibble: 72 x 2
##    sender          sentiment
##    <chr>               <dbl>
##  1 AFunabiki           0.623
##  2 AISES               0.895
##  3 alsgillespie        0.698
##  4 AmandaMackereth     0.694
##  5 AmyBakaletz         0.694
##  6 AndersonTechie      0.694
##  7 AngCleveland        0.753
##  8 AnnyAllerton        0.159
##  9 AnthonyOwenADE      0.648
## 10 AstraZeno           0.721
## # … with 62 more rows
```
…
